{
    "-2": {
        "id": -2,
        "name": "Don't delete me 1",
        "email": "dontdelete1@gmail.com",
        "username": "dont.delete.1",
        "password": "dont_delete_1",
        "is_admin": true
    },
    "-1": {
        "id": -1,
        "name": "Don't delete me 2",
        "email": "dontdelete2@gmail.com",
        "username": "dont.delete.2",
        "password": "dont_delete_2",
        "is_admin": false
    }
}